final_project
…
Wikipedia - S&P 500 Stock Composition

url <- "https://en.wikipedia.org/wiki/List_of_S%26P_500_companies"
wiki_table <- url %>%
  read_html() %>%
  html_node(".wikitable") %>%
  html_table() %>%
  select(Symbol, Security, 'GICS Sector',CIK)
colnames(wiki_table)[3] <- 'GICS_sector'
colnames(wiki_table)[1] <- 'ticker'
wiki_table %>%
  as_tibble()

## # A tibble: 505 x 4
##    ticker Security                   GICS_sector                CIK
##    <chr>  <chr>                      <chr>                    <int>
##  1 MMM    3M Company                 Industrials              66740
##  2 ABT    Abbott Laboratories        Health Care               1800
##  3 ABBV   AbbVie Inc.                Health Care            1551152
##  4 ABMD   ABIOMED Inc                Health Care             815094
##  5 ACN    Accenture plc              Information Technology 1467373
##  6 ATVI   Activision Blizzard        Communication Services  718877
##  7 ADBE   Adobe Systems Inc          Information Technology  796343
##  8 AMD    Advanced Micro Devices Inc Information Technology    2488
##  9 AAP    Advance Auto Parts         Consumer Discretionary 1158449
## 10 AES    AES Corp                   Utilities               874761
## #  with 495 more rows
…
S&P 500 DataFrame With the 2 functions needed to create the desired dataframe, I will iterate through each ticker from the wiki_table and call the functions, binding the returned prices to sp500. Afterwards I will sort by yearly quarter to make it more easily read.

sp500_list <- pull(wiki_table, ticker)
sp500 <- calc_3month(get_prices(sp500_list[1]))
for(i in 2:length(sp500_list))
  sp500 <- rbind(sp500,calc_3month(get_prices(sp500_list[i])))
sp500 <- sp500 %>%
  arrange(yq)
as_tibble(sp500)

## # A tibble: 9,879 x 3
##       yq return_3month ticker
##    <dbl>         <dbl> <chr> 
##  1 2014.       0.00618 MMM   
##  2 2014.       0.0593  ABT   
##  3 2014.       0.0267  ABBV  
##  4 2014.       0.0973  ABMD  
##  5 2014.      -0.0232  ACN   
##  6 2014.       0.0664  ATVI  
##  7 2014.       0.0422  ADBE  
##  8 2014.      -0.0184  AMD   
##  9 2014.       0.0336  AAP   
## 10 2014.       0.0265  AES   
## #  with 9,869 more rows
…
As is apparent from the above, a little over half of stocks during the time period analyzed had a positive 3 month return.

Finally, we will add the GICS Sector from the wikitable and group the dataframe by GICS Sector.

sp500 <- sp500 %>%
  left_join(wiki_table, by="ticker") %>%
  select(-c("CIK","Security"))

sp500$GICS_sector <- factor(sp500$GICS_sector)
as_tibble(sp500)

## # A tibble: 9,879 x 4
##       yq return_3month ticker GICS_sector           
##    <dbl>         <dbl> <chr>  <fct>                 
##  1 2014.       0.00618 MMM    Industrials           
##  2 2014.       0.0593  ABT    Health Care           
##  3 2014.       0.0267  ABBV   Health Care           
##  4 2014.       0.0973  ABMD   Health Care           
##  5 2014.      -0.0232  ACN    Information Technology
##  6 2014.       0.0664  ATVI   Communication Services
##  7 2014.       0.0422  ADBE   Information Technology
##  8 2014.      -0.0184  AMD    Information Technology
##  9 2014.       0.0336  AAP    Consumer Discretionary
## 10 2014.       0.0265  AES    Utilities             
## #  with 9,869 more rows
…
Creating Model and Extracting Outcome_Df With a finalized dataset, we can extract the outcome_df and design a statistical model to predict stock performance.

The outcome df will have a categorical outcome of 1 meaning up and 0 meaning down depending on the return for Q1 2019.

outcome_df <- sp500 %>%
  filter(yq == '2019.1') %>%
  select(yq, ticker, return_3month) %>%
  mutate(direction = ifelse(return_3month > 0, 1, 0)) %>%
  select(ticker, direction)
outcome_df %>% as_tibble()

## # A tibble: 502 x 2
##    ticker direction
##    <chr>      <dbl>
##  1 MMM            1
##  2 ABT            1
##  3 ABBV           0
##  4 ABMD           0
##  5 ACN            0
##  6 ATVI           0
##  7 ADBE           1
##  8 AMD            1
##  9 AAP            0
## 10 AES            1
## #  with 492 more rows

Now we will filter the sp500 dataframe to the required time frame, everything before 2019, and spread yq as columns with respect to return_3month. This will allow the model to use each quarterly time frame per ticker, and rejoin the outcome_df.

final_df <- sp500 %>%
  filter(yq < 2019) %>%
  spread(yq, return_3month) %>%
  left_join(outcome_df, by="ticker") 
final_df %>% as_tibble()

## # A tibble: 501 x 21
##    ticker GICS_sector `2014.3` `2014.4` `2015.1` `2015.2` `2015.3` `2015.4`
##    <chr>  <fct>          <dbl>    <dbl>    <dbl>    <dbl>    <dbl>    <dbl>
##  1 A      Health Care  -0.0113  -0.0100  0.00571  0.0286  -0.0861   0.0252 
##  2 AAL    Industrials  -0.0625   0.0978  0.181   -0.100   -0.0976   0.0578 
##  3 AAP    Consumer D   0.0336   0.121   0.0500  -0.00906  0.135    0.00248
##  4 AAPL   Informatio   0.0790   0.114   0.115    0.0634  -0.0792  -0.0212 
##  5 ABBV   Health Care   0.0267   0.144  -0.0347   0.0897   0.00446 -0.107  
##  6 ABC    Health Care   0.0517   0.132   0.176    0.123   -0.0663  -0.0610 
##  7 ABMD   Health Care   0.0973   0.245   0.721    0.224    0.326   -0.0368 
##  8 ABT    Health Care   0.0593   0.0351  0.0595   0.0509  -0.0134  -0.0581 
##  9 ACN    Informatio  -0.0232   0.0480  0.0766   0.0814   0.0387   0.0736 
## 10 ADBE   Informatio   0.0422  -0.0110  0.0642   0.0460   0.0389   0.108  
## #  with 491 more rows, and 13 more variables: `2016.1` <dbl>,
## #   `2016.2` <dbl>, `2016.3` <dbl>, `2016.4` <dbl>, `2017.1` <dbl>,
## #   `2017.2` <dbl>, `2017.3` <dbl>, `2017.4` <dbl>, `2018.1` <dbl>,
## #   `2018.2` <dbl>, `2018.3` <dbl>, `2018.4` <dbl>, direction <dbl>
…
When judging by p.value alone, with a statistical significance of 0.05, it would appear that several of the quarterly variables hold predictive capability.

sector_fit <- glm(direction ~ . -ticker, family='binomial', data=train_df)
sector_fit %>% tidy() %>% arrange(p.value) %>% select(term, p.value, everything())

## # A tibble: 29 x 5
##    term                              p.value estimate std.error statistic
##    <chr>                               <dbl>    <dbl>     <dbl>     <dbl>
##  1 `2016.2`                          0.00128     8.53      2.65      3.22
##  2 `2018.4`                          0.00138     8.47      2.65      3.20
##  3 `2016.4`                          0.00986    -6.72      2.60     -2.58
##  4 `2015.1`                          0.0251     -6.37      2.84     -2.24
##  5 `2015.2`                          0.0414      6.62      3.25      2.04
##  6 `2017.3`                          0.0444      6.25      3.11      2.01
##  7 GICS_sectorReal Estate            0.0488      2.54      1.29      1.97
##  8 GICS_sectorConsumer Discretionary 0.0588      2.06      1.09      1.89
##  9 GICS_sectorIndustrials            0.0628      2.02      1.08      1.86
## 10 GICS_sectorMaterials              0.100       2.20      1.34      1.64
## #  with 19 more rows
…
